8bit_adder_and_subtractor_code/project_4/project_4.sim/sim_1/behav/xsim/simulate.log
Vivado Simulator 2020.2
Time resolution is 1 ps
simtime=0,A=xxxx,B=xxxx,Bri=x,D=xxxx,Bro=x
simtime=50,A=0000,B=1000,Bri=0,D=xxx0,Bro=x
simtime=100,A=0001,B=0111,Bri=1,D=1001,Bro=1
simtime=150,A=0010,B=0110,Bri=0,D=1xx0,Bro=x
simtime=200,A=0011,B=0101,Bri=1,D=1101,Bro=1
simtime=250,A=0101,B=0011,Bri=0,D=0010,Bro=0
simtime=300,A=0110,B=0010,Bri=1,D=0xx1,Bro=x
simtime=350,A=0111,B=0001,Bri=1,D=01x1,Bro=x
simtime=400,A=1000,B=1111,Bri=1,D=1000,Bro=1
simtime=450,A=1001,B=1110,Bri=0,D=10x1,Bro=x
simtime=500,A=1010,B=1101,Bri=0,D=1101,Bro=1
simtime=550,A=1011,B=1100,Bri=1,D=11x0,Bro=x
simtime=600,A=1100,B=1011,Bri=0,D=00x1,Bro=x
simtime=650,A=1101,B=1010,Bri=0,D=0011,Bro=0
simtime=700,A=1110,B=1001,Bri=1,D=01x0,Bro=x
simtime=750,A=1111,B=1000,Bri=1,D=0110,Bro=0
